file;cores;clock;us;sorted
data/c1.d;64;1599466;1599;1
data/cm.d;64;1599466;1599;1
data/cz.d;64;1599466;1599;1
data/dec.d;64;1779031;1779;1
data/inc.d;64;1599466;1599;1
data/r1.d;64;2310381;2310;1
data/r2.d;64;2304222;2304;1
data/ro1_3l.d;64;2012035;2012;1
data/ro1l.d;64;1980912;1980;1
data/ro3_5l_1_7r.d;64;2259010;2259;1
data/topdec.d;64;1779031;1779;1
data/topinc.d;64;1599466;1599;1
data/ur1.d;64;2304844;2304;1
data/ur2.d;64;2314450;2314;1
